<define-tag pagetitle>DLA-2978-1 thunderbird</define-tag>
<define-tag report_date>2022-04-11</define-tag>
<define-tag secrefs>CVE-2022-1097 CVE-2022-1196 CVE-2022-1197 CVE-2022-24713 CVE-2022-28281 CVE-2022-28282 CVE-2022-28285 CVE-2022-28286 CVE-2022-28289</define-tag>
<define-tag packages>thunderbird</define-tag>
<define-tag isvulnerable>yes</define-tag>
<define-tag fixed>yes</define-tag>
<define-tag fixed-section>no</define-tag>

#use wml::debian::security

