<define-tag pagetitle>DLA-2922-1 pgbouncer</define-tag>
<define-tag report_date>2022-02-14</define-tag>
<define-tag secrefs>CVE-2021-3935</define-tag>
<define-tag packages>pgbouncer</define-tag>
<define-tag isvulnerable>yes</define-tag>
<define-tag fixed>yes</define-tag>
<define-tag fixed-section>no</define-tag>

#use wml::debian::security

