<define-tag pagetitle>DLA-2941-1 linux-4.19</define-tag>
<define-tag report_date>2022-3-9</define-tag>
<define-tag secrefs>CVE-2020-29374 CVE-2020-36322 CVE-2021-3640 CVE-2021-3744 CVE-2021-3752 CVE-2021-3760 CVE-2021-3764 CVE-2021-3772 CVE-2021-4002 CVE-2021-4083 CVE-2021-4135 CVE-2021-4155 CVE-2021-4203 CVE-2021-20317 CVE-2021-20321 CVE-2021-20322 CVE-2021-22600 CVE-2021-28711 CVE-2021-28712 CVE-2021-28713 CVE-2021-28714 CVE-2021-28715 CVE-2021-28950 CVE-2021-38300 CVE-2021-39685 CVE-2021-39686 CVE-2021-39698 CVE-2021-39713 CVE-2021-41864 CVE-2021-42739 CVE-2021-43389 CVE-2021-43975 CVE-2021-43976 CVE-2021-44733 CVE-2021-45095 CVE-2021-45469 CVE-2021-45480 CVE-2022-0001 CVE-2022-0002 CVE-2022-0322 CVE-2022-0330 CVE-2022-0435 CVE-2022-0487 CVE-2022-0492 CVE-2022-0617 CVE-2022-0644 CVE-2022-22942 CVE-2022-24448 CVE-2022-24959 CVE-2022-25258 CVE-2022-25375 Bug#988044 Bug#989285 Bug#990411 Bug#994050</define-tag>
<define-tag packages>linux-4.19</define-tag>
<define-tag isvulnerable>yes</define-tag>
<define-tag fixed>yes</define-tag>
<define-tag fixed-section>no</define-tag>

#use wml::debian::security

