<define-tag pagetitle>DLA-2969-1 asterisk</define-tag>
<define-tag report_date>2022-04-03</define-tag>
<define-tag secrefs>CVE-2019-13161 CVE-2019-18610 CVE-2019-18790 CVE-2019-18976 CVE-2020-28242</define-tag>
<define-tag packages>asterisk</define-tag>
<define-tag isvulnerable>yes</define-tag>
<define-tag fixed>yes</define-tag>
<define-tag fixed-section>no</define-tag>

#use wml::debian::security

