<define-tag pagetitle>DLA-2983-1 abcm2ps</define-tag>
<define-tag report_date>2022-04-17</define-tag>
<define-tag secrefs>CVE-2018-10753 CVE-2018-10771 CVE-2019-1010069 CVE-2021-32434</define-tag>
<define-tag packages>abcm2ps</define-tag>
<define-tag isvulnerable>yes</define-tag>
<define-tag fixed>yes</define-tag>
<define-tag fixed-section>no</define-tag>

#use wml::debian::security

