<define-tag pagetitle>DSA-4858-1 chromium</define-tag>
<define-tag report_date>2021-2-19</define-tag>
<define-tag secrefs>CVE-2021-21148 CVE-2021-21149 CVE-2021-21150 CVE-2021-21151 CVE-2021-21152 CVE-2021-21153 CVE-2021-21154 CVE-2021-21155 CVE-2021-21156 CVE-2021-21157</define-tag>
<define-tag packages>chromium</define-tag>
<define-tag isvulnerable>yes</define-tag>
<define-tag fixed>yes</define-tag>
<define-tag fixed-section>no</define-tag>

#use wml::debian::security



</dl>
