<define-tag pagetitle>DSA-4846-1 chromium</define-tag>
<define-tag report_date>2021-2-07</define-tag>
<define-tag secrefs>CVE-2020-16044 CVE-2021-21117 CVE-2021-21118 CVE-2021-21119 CVE-2021-21120 CVE-2021-21121 CVE-2021-21122 CVE-2021-21123 CVE-2021-21124 CVE-2021-21125 CVE-2021-21126 CVE-2021-21127 CVE-2021-21128 CVE-2021-21129 CVE-2021-21130 CVE-2021-21131 CVE-2021-21132 CVE-2021-21133 CVE-2021-21134 CVE-2021-21135 CVE-2021-21136 CVE-2021-21137 CVE-2021-21138 CVE-2021-21139 CVE-2021-21140 CVE-2021-21141 CVE-2021-21142 CVE-2021-21143 CVE-2021-21144 CVE-2021-21145 CVE-2021-21146 CVE-2021-21147</define-tag>
<define-tag packages>chromium</define-tag>
<define-tag isvulnerable>yes</define-tag>
<define-tag fixed>yes</define-tag>
<define-tag fixed-section>no</define-tag>

#use wml::debian::security



</dl>
