<define-tag pagetitle>DSA-4865-1 docker.io</define-tag>
<define-tag report_date>2021-2-27</define-tag>
<define-tag secrefs>CVE-2020-15157 CVE-2020-15257 CVE-2021-21284 CVE-2021-21285</define-tag>
<define-tag packages>docker.io</define-tag>
<define-tag isvulnerable>yes</define-tag>
<define-tag fixed>yes</define-tag>
<define-tag fixed-section>no</define-tag>

#use wml::debian::security



</dl>
