<define-tag pagetitle>DSA-5031-1 wpewebkit</define-tag>
<define-tag report_date>2021-12-23</define-tag>
<define-tag secrefs>CVE-2021-30887 CVE-2021-30890</define-tag>
<define-tag packages>wpewebkit</define-tag>
<define-tag isvulnerable>yes</define-tag>
<define-tag fixed>yes</define-tag>
<define-tag fixed-section>no</define-tag>

#use wml::debian::security



</dl>
