<define-tag pagetitle>DSA-4710-1 trafficserver</define-tag>
<define-tag report_date>2020-6-27</define-tag>
<define-tag secrefs>CVE-2020-9494 Bug#963629</define-tag>
<define-tag packages>trafficserver</define-tag>
<define-tag isvulnerable>yes</define-tag>
<define-tag fixed>yes</define-tag>
<define-tag fixed-section>no</define-tag>

#use wml::debian::security



</dl>
