<define-tag pagetitle>DLA-2796-1 jbig2dec</define-tag>
<define-tag report_date>2021-10-28</define-tag>
<define-tag secrefs>CVE-2017-9216 CVE-2020-12268</define-tag>
<define-tag packages>jbig2dec</define-tag>
<define-tag isvulnerable>yes</define-tag>
<define-tag fixed>yes</define-tag>
<define-tag fixed-section>no</define-tag>

#use wml::debian::security

