<define-tag pagetitle>DLA-2777-1 tiff</define-tag>
<define-tag report_date>2021-10-03</define-tag>
<define-tag secrefs>CVE-2020-19131 CVE-2020-19144</define-tag>
<define-tag packages>tiff</define-tag>
<define-tag isvulnerable>yes</define-tag>
<define-tag fixed>yes</define-tag>
<define-tag fixed-section>no</define-tag>

#use wml::debian::security

