<define-tag pagetitle>DLA-2648-1 mediawiki</define-tag>
<define-tag report_date>2021-05-11</define-tag>
<define-tag secrefs>CVE-2021-20270 CVE-2021-27291 CVE-2021-30152 CVE-2021-30155 CVE-2021-30158 CVE-2021-30159 Bug#985574 Bug#984664</define-tag>
<define-tag packages>mediawiki</define-tag>
<define-tag isvulnerable>yes</define-tag>
<define-tag fixed>yes</define-tag>
<define-tag fixed-section>no</define-tag>

#use wml::debian::security

