<define-tag pagetitle>DLA-2518-1 cairo</define-tag>
<define-tag report_date>2021-01-06</define-tag>
<define-tag secrefs>CVE-2020-35492 Bug#978658</define-tag>
<define-tag packages>cairo</define-tag>
<define-tag isvulnerable>yes</define-tag>
<define-tag fixed>yes</define-tag>
<define-tag fixed-section>no</define-tag>

#use wml::debian::security

