<define-tag pagetitle>DLA-2645-1 edk2</define-tag>
<define-tag report_date>2021-4-29</define-tag>
<define-tag secrefs>CVE-2019-0161 CVE-2019-14558 CVE-2019-14559 CVE-2019-14562 CVE-2019-14563 CVE-2019-14575 CVE-2019-14584 CVE-2019-14586 CVE-2019-14587 CVE-2021-28210 CVE-2021-28211 Bug#952926 Bug#968819 Bug#952934 Bug#977300</define-tag>
<define-tag packages>edk2</define-tag>
<define-tag isvulnerable>yes</define-tag>
<define-tag fixed>yes</define-tag>
<define-tag fixed-section>no</define-tag>

#use wml::debian::security

