<define-tag pagetitle>DLA-783-1 xen</define-tag>
<define-tag report_date>2017-1-13</define-tag>
<define-tag secrefs>CVE-2016-10013 CVE-2016-10024</define-tag>
<define-tag packages>xen</define-tag>
<define-tag isvulnerable>yes</define-tag>
<define-tag fixed>yes</define-tag>
<define-tag fixed-section>no</define-tag>

#use wml::debian::security

