<define-tag pagetitle>DLA-1195-1 curl</define-tag>
<define-tag report_date>2017-11-30</define-tag>
<define-tag secrefs>CVE-2017-8817</define-tag>
<define-tag packages>curl</define-tag>
<define-tag isvulnerable>yes</define-tag>
<define-tag fixed>yes</define-tag>
<define-tag fixed-section>no</define-tag>

#use wml::debian::security

