<define-tag pagetitle>DLA-2067-1 wordpress</define-tag>
<define-tag report_date>2020-01-14</define-tag>
<define-tag secrefs>CVE-2019-20041 Bug#946905</define-tag>
<define-tag packages>wordpress</define-tag>
<define-tag isvulnerable>yes</define-tag>
<define-tag fixed>yes</define-tag>
<define-tag fixed-section>no</define-tag>

#use wml::debian::security

