<define-tag pagetitle>DLA-2362-1 uwsgi</define-tag>
<define-tag report_date>2020-09-03</define-tag>
<define-tag secrefs>CVE-2020-11984</define-tag>
<define-tag packages>uwsgi</define-tag>
<define-tag isvulnerable>yes</define-tag>
<define-tag fixed>yes</define-tag>
<define-tag fixed-section>no</define-tag>

#use wml::debian::security

