<define-tag pagetitle>DLA-1549-1 xen</define-tag>
<define-tag report_date>2018-10-18</define-tag>
<define-tag secrefs>CVE-2017-14316 CVE-2017-14317 CVE-2017-14319 CVE-2017-15588 CVE-2017-15589 CVE-2017-15590 CVE-2017-15597 CVE-2017-17046 CVE-2017-17563 CVE-2017-17564 CVE-2017-17565 CVE-2017-17566 CVE-2018-10471 CVE-2018-10982</define-tag>
<define-tag packages>xen</define-tag>
<define-tag isvulnerable>yes</define-tag>
<define-tag fixed>yes</define-tag>
<define-tag fixed-section>no</define-tag>

#use wml::debian::security

