<define-tag pagetitle>DLA-1334-1 mosquitto</define-tag>
<define-tag report_date>2018-3-31</define-tag>
<define-tag secrefs>CVE-2017-7651 CVE-2017-7652</define-tag>
<define-tag packages>mosquitto</define-tag>
<define-tag isvulnerable>yes</define-tag>
<define-tag fixed>yes</define-tag>
<define-tag fixed-section>no</define-tag>

#use wml::debian::security

