<define-tag pagetitle>DLA-1374-1 firebird2.5</define-tag>
<define-tag report_date>2018-5-11</define-tag>
<define-tag secrefs>CVE-2017-11509</define-tag>
<define-tag packages>firebird2.5</define-tag>
<define-tag isvulnerable>yes</define-tag>
<define-tag fixed>yes</define-tag>
<define-tag fixed-section>no</define-tag>

#use wml::debian::security

