<define-tag pagetitle>DSA-4577-1 haproxy</define-tag>
<define-tag report_date>2019-11-28</define-tag>
<define-tag secrefs>CVE-2019-19330</define-tag>
<define-tag packages>haproxy</define-tag>
<define-tag isvulnerable>yes</define-tag>
<define-tag fixed>yes</define-tag>
<define-tag fixed-section>no</define-tag>

#use wml::debian::security



</dl>
