<define-tag pagetitle>DSA-5101-1 libphp-adodb</define-tag>
<define-tag report_date>2022-3-13</define-tag>
<define-tag secrefs>CVE-2021-3850 Bug#1004376</define-tag>
<define-tag packages>libphp-adodb</define-tag>
<define-tag isvulnerable>yes</define-tag>
<define-tag fixed>yes</define-tag>
<define-tag fixed-section>no</define-tag>

#use wml::debian::security



</dl>
