<define-tag pagetitle>DSA-5080-1 snapd</define-tag>
<define-tag report_date>2022-2-18</define-tag>
<define-tag secrefs>CVE-2021-44730 CVE-2021-44731</define-tag>
<define-tag packages>snapd</define-tag>
<define-tag isvulnerable>yes</define-tag>
<define-tag fixed>yes</define-tag>
<define-tag fixed-section>no</define-tag>

#use wml::debian::security



</dl>
