<define-tag pagetitle>DLA-1951-1 libtomcrypt</define-tag>
<define-tag report_date>2019-10-09</define-tag>
<define-tag secrefs>CVE-2019-17362</define-tag>
<define-tag packages>libtomcrypt</define-tag>
<define-tag isvulnerable>yes</define-tag>
<define-tag fixed>yes</define-tag>
<define-tag fixed-section>no</define-tag>

#use wml::debian::security
