<define-tag pagetitle>DLA-2048-1 libxml2</define-tag>
<define-tag report_date>2019-12-28</define-tag>
<define-tag secrefs>CVE-2019-19956</define-tag>
<define-tag packages>libxml2</define-tag>
<define-tag isvulnerable>yes</define-tag>
<define-tag fixed>yes</define-tag>
<define-tag fixed-section>no</define-tag>

#use wml::debian::security
