<define-tag pagetitle>DLA-1854-1 libonig</define-tag>
<define-tag report_date>2019-7-17</define-tag>
<define-tag secrefs>CVE-2019-13224 Bug#931878</define-tag>
<define-tag packages>libonig</define-tag>
<define-tag isvulnerable>yes</define-tag>
<define-tag fixed>yes</define-tag>
<define-tag fixed-section>no</define-tag>

#use wml::debian::security

