<define-tag pagetitle>DLA-1727-1 firefox-esr</define-tag>
<define-tag report_date>2019-3-25</define-tag>
<define-tag secrefs>CVE-2019-9810 CVE-2019-9813</define-tag>
<define-tag packages>firefox-esr</define-tag>
<define-tag isvulnerable>yes</define-tag>
<define-tag fixed>yes</define-tag>
<define-tag fixed-section>no</define-tag>

#use wml::debian::security

