<define-tag pagetitle>DLA-1780-1 firefox-esr</define-tag>
<define-tag report_date>2019-05-07</define-tag>
<define-tag secrefs>Bug#928415 Bug#928449 Bug#928509</define-tag>
<define-tag packages>firefox-esr</define-tag>
<define-tag isvulnerable>yes</define-tag>
<define-tag fixed>yes</define-tag>
<define-tag fixed-section>no</define-tag>

#use wml::debian::security

