<define-tag pagetitle>DLA-1877-1 otrs2</define-tag>
<define-tag report_date>2019-8-14</define-tag>
<define-tag secrefs>CVE-2018-11563 CVE-2019-12746 CVE-2019-13458</define-tag>
<define-tag packages>otrs2</define-tag>
<define-tag isvulnerable>yes</define-tag>
<define-tag fixed>yes</define-tag>
<define-tag fixed-section>no</define-tag>

#use wml::debian::security

