<define-tag pagetitle>DLA-601-1 quagga</define-tag>
<define-tag report_date>2016-8-27</define-tag>
<define-tag secrefs>CVE-2016-4036 CVE-2016-4049 Bug#835223 Bug#822787</define-tag>
<define-tag packages>quagga</define-tag>
<define-tag isvulnerable>yes</define-tag>
<define-tag fixed>yes</define-tag>
<define-tag fixed-section>no</define-tag>

#use wml::debian::security

