<define-tag pagetitle>DLA-753-1 tomcat7</define-tag>
<define-tag report_date>2016-12-18</define-tag>
<define-tag secrefs>CVE-2016-9774 Bug#845393 Bug#845425 Bug#846298</define-tag>
<define-tag packages>tomcat7</define-tag>
<define-tag isvulnerable>yes</define-tag>
<define-tag fixed>yes</define-tag>
<define-tag fixed-section>no</define-tag>

#use wml::debian::security

