<define-tag pagetitle>DLA-488-1 xymon</define-tag>
<define-tag report_date>2016-5-25</define-tag>
<define-tag secrefs>CVE-2016-2054 CVE-2016-2055 CVE-2016-2056 CVE-2016-2058</define-tag>
<define-tag packages>xymon</define-tag>
<define-tag isvulnerable>yes</define-tag>
<define-tag fixed>yes</define-tag>
<define-tag fixed-section>no</define-tag>

#use wml::debian::security

