<define-tag pagetitle>DLA-518-1 mozilla-devscripts</define-tag>
<define-tag report_date>2016-6-17</define-tag>
<define-tag secrefs>Bug#825508</define-tag>
<define-tag packages>mozilla-devscripts</define-tag>
<define-tag isvulnerable>yes</define-tag>
<define-tag fixed>yes</define-tag>
<define-tag fixed-section>no</define-tag>

#use wml::debian::security

