<define-tag pagetitle>DLA-764-1 qemu</define-tag>
<define-tag report_date>2016-12-26</define-tag>
<define-tag secrefs>CVE-2016-9911 CVE-2016-9921 CVE-2016-9922</define-tag>
<define-tag packages>qemu</define-tag>
<define-tag isvulnerable>yes</define-tag>
<define-tag fixed>yes</define-tag>
<define-tag fixed-section>no</define-tag>

#use wml::debian::security

