<define-tag pagetitle>DLA-609-1 linux</define-tag>
<define-tag report_date>2016-9-3</define-tag>
<define-tag secrefs>CVE-2016-3857 CVE-2016-4470 CVE-2016-5696 CVE-2016-5829 CVE-2016-6136 CVE-2016-6480 CVE-2016-6828 CVE-2016-7118 Bug#827561</define-tag>
<define-tag packages>linux</define-tag>
<define-tag isvulnerable>yes</define-tag>
<define-tag fixed>yes</define-tag>
<define-tag fixed-section>no</define-tag>

#use wml::debian::security

