<define-tag pagetitle>DLA-486-1 imagemagick</define-tag>
<define-tag report_date>2016-5-23</define-tag>
<define-tag secrefs>CVE-2016-3714 CVE-2016-3715 CVE-2016-3716 CVE-2016-3717 CVE-2016-3718 Bug#823542</define-tag>
<define-tag packages>imagemagick</define-tag>
<define-tag isvulnerable>yes</define-tag>
<define-tag fixed>yes</define-tag>
<define-tag fixed-section>no</define-tag>

#use wml::debian::security

